{
  "dashboard": [
    {
      "name": "View",
      "code": "rDashboard"
    }
  ],
  "booking":[
    {
      "name": "Create",
      "code": "cBooking"
    },
    {
      "name": "Read",
      "code": "rBooking"
    },
    {
      "name": "Edit",
      "code": "eBooking"
    }],
  "customer":[{
      "name": "Create",
      "code": "cCustomer"
    },
    {
      "name": "Read",
      "code": "rCustomer"
    },
    {
      "name": "Edit",
      "code": "eCustomer"
    }],
  "locations": [
    {
      "name": "Create",
      "code": "cLocations"
    },
    {
      "name": "Read",
      "code": "rLocations"
    },
    {
      "name": "Edit",
      "code": "eLocations"
    }],

  "User": [
    {
      "name": "Create",
      "code": "cUsers"
    },
    {
      "name": "Read",
      "code": "rUsers"
    },
    {
      "name": "Edit",
      "code": "eUsers"
    },
    {
      "name": "Deactivate",
      "code": "deactivateUsers"
    },
    {
      "name": "Delete",
      "code": "dUsers"
    }],
  "AddOn": [
    {
      "name": "Create",
      "code": "cAddons"
    },
    {
      "name": "Read",
      "code": "rAddons"
    },
    {
      "name": "Edit",
      "code": "eAddons"
    },
    {
      "name": "Delete",
      "code": "dAddons"
    }],
  "Amenities": [
    {
      "name": "Create",
      "code": "cAmenities"
    },
    {
      "name": "Read",
      "code": "rAmenities"
    },
    {
      "name": "Edit",
      "code": "eAmenities"
    },
    {
      "name": "Delete",
      "code": "dAmenities"
    }],
  "Tax": [
    {
      "name": "Create",
      "code": "cTax"
    },
    {
      "name": "Read",
      "code": "rTax"
    },
    {
      "name": "Edit",
      "code": "eTax"
    },
    {
      "name": "Delete",
      "code": "dTax"
    }],
  "SharedSpace": [
    {
      "name": "Create",
      "code": "cSharedSpace"
    },
    {
      "name": "Read",
      "code": "rSharedSpace"
    },
    {
      "name": "Edit",
      "code": "eSharedSpace"
    },
    {
      "name": "Delete",
      "code": "dSharedSpace"
    }],
  "Promotion": [
    {
      "name": "Create",
      "code": "cPromotion"
    },
    {
      "name": "Read",
      "code": "rPromotion"
    },
    {
      "name": "Edit",
      "code": "ePromotion"
    },
    {
      "name": "Delete",
      "code": "dPromotion"
    }],
  "Content": [
    {
      "name": "Create",
      "code": "cContent"
    },
    {
      "name": "Read",
      "code": "rContent"
    },
    {
      "name": "Edit",
      "code": "eContent"
    },
    {
      "name": "Delete",
      "code": "dContent"
    }]
}